{
	"image": "cleanlang/devcontainer:latest",
	"customizations": {"vscode": {"extensions": [
				"TOPSoftware.clean-vs-code",
				"eamodio.gitlens"
			]}},
	"onCreateCommand": "/onStartup.sh; .devcontainer/setup.sh"
}
